%YAML 1.1
%TAG !u! tag:unity3d.com,2011:
--- !u!1045 &1
EditorBuildSettings:
  m_ObjectHideFlags: 0
  serializedVersion: 2
  m_Scenes:
  - enabled: 1
    path: Assets/Scenes/menu.unity
    guid: cab1d4e561948784fa1c4ab1e7da6b9e
  - enabled: 1
    path: Assets/Scenes/lab.unity
    guid: 9fc0d4010bbf28b4594072e72b8655ab
  m_configObjects: {}
